<?xml version="1.0" standalone="no"?>
<!DOCTYPE svg PUBLIC "-//W3C//DTD SVG 20010904//EN"
 "http://www.w3.org/TR/2001/REC-SVG-20010904/DTD/svg10.dtd">
<svg version="1.0" xmlns="http://www.w3.org/2000/svg"
 width="2048.000000pt" height="2048.000000pt" viewBox="0 0 2048.000000 2048.000000"
 preserveAspectRatio="xMidYMid meet">
<metadata>
Created by potrace 1.16, written by Peter Selinger 2001-2019
</metadata>
<g transform="translate(0.000000,2048.000000) scale(0.192120,-0.192120)"
fill="#000000" stroke="none">
<path d="M5498 10025 c-2 -3 -100 -5 -217 -6 -118 0 -225 -5 -240 -10 -14 -6
-84 -14 -156 -19 -167 -11 -287 -26 -350 -44 -27 -8 -104 -24 -170 -36 -336
-62 -750 -205 -1112 -384 -492 -243 -894 -535 -1278 -927 -323 -330 -568 -664
-783 -1066 -705 -1320 -732 -2914 -72 -4268 391 -803 1023 -1491 1796 -1955
898 -539 1961 -761 3009 -629 1556 197 2909 1159 3604 2564 642 1298 651 2815
25 4115 -178 369 -423 743 -679 1035 -161 184 -468 489 -590 586 -577 460
-1281 794 -1966 933 -64 13 -125 29 -135 34 -11 5 -57 15 -104 21 -47 6 -134
17 -195 25 -197 26 -377 41 -387 31z m-68 -66 c0 -6 -17 -29 -39 -50 -53 -54
-82 -53 -106 4 -10 23 -20 45 -23 50 -2 4 35 7 82 7 57 0 86 -4 86 -11z m-472
-19 c31 0 32 -1 32 -46 0 -101 -34 -169 -81 -162 -39 5 -48 51 -21 101 12 23
22 45 22 49 0 4 -14 23 -30 42 l-30 34 37 -9 c21 -5 53 -9 71 -9z m203 -22
c43 -36 55 -53 70 -103 30 -95 23 -123 -26 -105 -30 11 -131 123 -165 183
l-30 52 33 6 c58 11 66 9 118 -33z m463 -10 c97 -59 145 -61 295 -14 63 20
116 34 118 32 8 -8 -27 -104 -48 -130 -11 -14 -27 -26 -35 -26 -27 0 -71 -29
-77 -51 -4 -16 6 -33 39 -69 50 -54 55 -80 19 -115 -33 -34 -90 -33 -158 2
-89 46 -224 31 -322 -36 -73 -49 -51 -110 43 -119 34 -3 69 3 125 22 104 35
148 34 189 -3 30 -27 33 -34 36 -105 3 -51 0 -81 -8 -91 -19 -23 -403 -22
-460 1 -40 16 -70 54 -70 90 0 46 -95 156 -192 223 -29 21 -54 44 -56 53 -2 9
8 28 21 43 34 40 91 40 149 -1 67 -49 78 -49 138 -8 29 20 72 43 96 51 24 8
46 19 49 23 3 5 -6 22 -20 38 -30 36 -32 58 -5 67 33 10 43 42 36 113 -8 75
-11 75 98 10z m-1064 7 c-7 -8 -28 -17 -49 -21 -20 -3 -44 -8 -53 -11 -10 -2
-18 -1 -18 4 0 8 89 39 119 42 11 1 11 -2 1 -14z m1739 -74 c53 -33 120 -75
148 -93 55 -36 102 -53 243 -88 57 -14 144 -50 265 -109 99 -49 272 -134 385
-190 304 -148 471 -252 778 -483 100 -76 197 -145 214 -154 17 -9 66 -21 107
-26 42 -5 77 -11 80 -13 8 -9 -22 -133 -45 -182 -14 -29 -53 -81 -87 -117 -59
-60 -68 -65 -152 -90 -181 -53 -166 -45 -205 -115 -77 -137 -136 -178 -271
-192 -94 -9 -135 -30 -161 -81 -26 -50 -39 -148 -32 -235 11 -124 -31 -258
-82 -258 -23 0 -300 283 -369 376 -56 76 -85 154 -85 227 0 60 12 87 77 171
37 49 57 128 43 166 -10 25 -12 26 -70 19 -55 -6 -63 -4 -85 16 -34 32 -34 94
0 160 35 69 33 99 -11 141 -60 57 -73 98 -94 313 -27 271 -60 402 -120 466
-37 39 -80 39 -180 0 -144 -57 -244 -62 -312 -17 -70 48 -63 108 24 188 37 34
58 61 54 68 -4 6 -38 27 -76 46 -38 19 -74 44 -80 54 -11 22 -14 91 -3 91 3 0
49 -27 102 -59z m-1876 -12 c39 -20 67 -52 67 -75 0 -45 -88 -92 -126 -66 -32
21 -47 115 -22 140 15 15 53 15 81 1z m-209 -141 c8 -13 20 -43 26 -68 15 -56
26 -70 57 -70 34 0 51 -11 109 -69 28 -28 55 -51 60 -51 31 1 53 54 54 131 0
20 3 38 6 41 3 4 46 -54 96 -127 121 -179 122 -175 -42 -230 -69 -23 -156 -50
-194 -60 l-69 -19 -46 51 c-25 28 -63 59 -84 68 -22 10 -60 45 -91 82 -30 36
-68 74 -85 84 -35 21 -35 36 -1 114 48 112 165 183 204 123z m821 -132 c22
-33 39 -135 31 -180 -4 -21 -19 -49 -33 -62 -31 -29 -86 -32 -108 -6 -16 20
-111 124 -178 197 -26 28 -47 53 -47 58 0 13 28 8 96 -18 90 -34 131 -33 174
5 43 36 46 36 65 6z m-1235 -116 c26 -26 34 -63 21 -88 -6 -12 -40 -51 -76
-89 -35 -37 -65 -74 -65 -80 0 -7 -4 -13 -9 -13 -26 0 -50 -144 -50 -310 -1
-119 -4 -160 -16 -176 -22 -33 -158 -58 -276 -52 -82 4 -123 14 -329 80 -129
42 -257 82 -285 90 -56 16 -68 37 -39 70 30 32 288 199 447 288 159 89 366
186 542 256 61 23 111 43 113 43 1 1 11 -8 22 -19z m2361 -111 c121 -121 204
-148 363 -115 43 9 87 16 98 16 32 0 55 -71 73 -225 17 -153 34 -229 67 -302
17 -38 23 -76 28 -178 6 -119 8 -134 34 -174 29 -46 46 -111 28 -111 -5 0 -25
17 -44 38 -18 20 -68 68 -111 106 -42 38 -77 76 -77 83 0 7 -7 16 -15 19 -8 4
-15 12 -15 20 0 28 -74 128 -168 227 -115 120 -135 146 -192 251 -24 44 -72
110 -107 147 -35 36 -63 71 -63 77 0 5 -7 23 -15 38 -26 50 -6 163 28 164 5 0
45 -36 88 -81z m-966 -24 c29 -99 3 -134 -56 -75 -25 25 -30 36 -24 58 7 27
42 72 56 72 5 0 16 -25 24 -55z m-1150 -159 l120 -24 85 -91 c47 -50 90 -91
96 -91 6 0 36 -18 68 -40 62 -44 109 -70 126 -70 5 0 10 14 10 32 0 42 35 112
63 126 41 20 120 24 145 6 30 -21 28 -39 -14 -147 -20 -51 -37 -110 -38 -132
-1 -48 32 -105 131 -223 35 -43 62 -84 61 -92 -8 -40 -150 -68 -178 -35 -20
24 -69 17 -137 -20 -35 -19 -73 -35 -83 -35 -16 0 -7 -14 40 -61 58 -60 61
-62 102 -56 23 3 87 28 143 56 55 28 112 51 126 51 15 0 70 -13 124 -30 143
-44 169 -40 207 33 17 32 22 59 22 109 0 66 0 67 20 55 122 -77 147 -88 198
-88 61 0 79 5 207 55 66 26 105 36 135 34 38 -3 42 -6 54 -42 10 -30 10 -57 2
-117 -37 -272 -110 -377 -390 -564 -181 -121 -253 -182 -281 -237 -41 -81 2
-147 153 -230 269 -150 319 -188 337 -255 5 -21 14 -76 20 -121 14 -108 43
-166 87 -170 71 -7 169 167 203 362 16 89 14 114 -19 221 -37 119 -40 200 -9
239 65 83 271 -35 371 -211 36 -65 73 -96 102 -87 12 3 53 31 93 61 40 30 80
53 90 51 26 -5 60 -73 79 -158 23 -103 34 -123 130 -221 115 -118 130 -160 99
-266 -18 -59 -59 -100 -108 -107 -18 -2 -74 -9 -125 -14 -141 -14 -160 -44
-98 -156 49 -87 36 -103 -119 -146 -44 -12 -94 -31 -112 -42 -40 -24 -78 -101
-93 -188 -19 -109 -45 -141 -151 -188 -68 -31 -78 -43 -94 -117 -7 -30 -61
-88 -168 -178 -31 -27 -60 -59 -63 -72 -3 -13 4 -66 16 -117 12 -51 24 -126
27 -166 6 -73 6 -74 -18 -70 -16 2 -54 41 -121 123 -54 66 -106 123 -115 127
-33 12 -178 8 -238 -7 -146 -38 -258 -126 -291 -228 -15 -48 -16 -64 -5 -110
15 -70 71 -151 129 -188 88 -56 146 -31 182 75 27 81 45 99 70 69 21 -27 41
-123 43 -216 l2 -68 97 3 c115 2 133 -6 123 -61 -21 -122 -15 -166 32 -222 25
-29 28 -30 87 -24 42 5 80 2 119 -8 l59 -16 61 63 c91 91 133 100 359 70 100
-13 134 -22 192 -51 233 -117 555 -315 576 -353 5 -10 10 -26 10 -35 0 -34 34
-88 73 -116 54 -39 129 -66 282 -100 71 -16 139 -36 151 -44 35 -22 144 -164
144 -187 0 -11 -25 -63 -55 -116 -70 -125 -82 -161 -105 -315 -22 -140 -34
-173 -89 -230 -44 -47 -87 -70 -172 -92 -118 -31 -150 -65 -171 -188 -6 -34
-19 -79 -30 -100 -10 -21 -144 -166 -298 -323 -289 -295 -384 -403 -424 -483
-14 -25 -43 -64 -65 -86 -23 -21 -41 -47 -41 -56 0 -19 45 -59 66 -59 25 0 15
-37 -43 -155 -41 -84 -58 -131 -61 -169 l-4 -54 76 -75 c44 -43 76 -83 76 -95
0 -90 -229 -39 -349 79 -54 53 -83 105 -106 194 -29 113 -16 227 47 393 l31
83 -6 164 c-6 158 -5 168 23 285 96 393 114 509 108 700 -7 198 -20 227 -153
327 -92 70 -110 95 -202 283 l-85 175 5 75 c2 41 25 154 50 250 25 96 47 189
51 207 9 50 -10 60 -124 68 -59 5 -113 14 -132 24 -21 10 -57 51 -99 111 -75
109 -123 149 -257 216 -91 46 -100 48 -206 55 -69 5 -133 15 -169 28 -139 49
-280 142 -454 298 -131 119 -184 186 -278 353 -86 153 -133 213 -219 279 -64
50 -110 114 -132 186 -11 34 -20 133 -28 312 l-13 262 -31 63 c-17 35 -63 99
-102 143 -85 96 -164 211 -250 360 -137 239 -223 342 -336 402 -117 62 -264
82 -334 45 -52 -28 -102 -101 -160 -234 -83 -188 -115 -222 -190 -199 -21 6
-51 11 -67 11 -84 0 -218 -70 -372 -194 -52 -42 -98 -76 -103 -76 -10 0 -3 37
19 100 28 80 83 152 199 265 l114 111 0 51 c0 82 -18 97 -222 192 -36 17 -79
46 -93 63 -23 27 -26 39 -22 76 6 55 29 80 142 149 100 61 135 90 135 110 0 7
-19 27 -42 43 -154 110 -198 145 -198 157 0 11 19 13 93 11 l92 -3 3 30 c2 21
-12 54 -47 114 -87 147 -85 221 9 268 148 74 493 94 707 42 49 -12 161 -48
250 -80 201 -73 236 -81 348 -81 68 1 112 7 180 28 137 41 181 47 295 41 91
-5 293 -37 334 -53 10 -4 12 2 9 19 -4 20 4 31 46 61 28 21 51 41 51 46 0 11
-26 20 -60 20 -67 0 -112 43 -126 120 -4 19 -11 45 -15 58 l-9 22 -60 -30
c-74 -38 -118 -39 -160 -4 -64 55 -76 125 -40 249 11 38 20 93 20 122 0 32 5
53 13 56 26 11 86 6 202 -17z m1274 -52 c49 -62 47 -121 -6 -173 -14 -14 -43
-52 -64 -83 -45 -66 -55 -74 -63 -51 -11 28 -8 228 4 259 28 73 91 97 129 48z
m-265 -30 c3 -9 6 -32 6 -52 0 -20 7 -75 15 -121 16 -89 10 -141 -19 -186 -24
-37 -54 -31 -102 21 -80 85 -104 176 -58 215 9 7 25 31 36 53 11 23 30 51 41
64 24 26 72 30 81 6z m681 -28 c33 0 96 4 140 8 59 5 86 4 105 -6 26 -14 31
-23 98 -168 66 -143 162 -254 259 -300 56 -26 77 -69 67 -140 -11 -82 -3 -97
79 -134 142 -65 238 -156 221 -209 -9 -31 -51 -85 -75 -98 -30 -16 -122 21
-228 92 -105 69 -185 141 -309 279 -52 58 -113 117 -135 133 -41 28 -41 28
-166 21 -141 -7 -225 7 -267 47 -36 33 -91 148 -103 213 -15 79 0 133 52 192
54 61 108 87 162 77 22 -4 67 -7 100 -7z m-518 -328 c28 -31 63 -102 63 -129
0 -33 -31 -77 -63 -90 -39 -16 -77 4 -89 46 -10 38 6 120 32 163 23 38 30 39
57 10z m3434 -441 c18 -12 78 -76 132 -142 493 -600 794 -1264 927 -2041 l30
-175 0 -577 0 -577 -30 -174 c-73 -424 -179 -767 -355 -1151 -62 -135 -83
-175 -186 -350 -376 -644 -904 -1174 -1549 -1555 -280 -165 -803 -395 -900
-395 -27 0 -67 35 -108 97 -30 43 -29 114 3 205 14 39 28 107 31 152 4 45 13
92 20 106 26 52 136 175 364 412 246 254 296 315 383 470 53 92 54 93 136 138
184 100 290 259 335 505 8 45 26 110 39 145 13 36 38 102 56 148 44 119 43
186 -6 287 -43 90 -149 204 -228 247 -28 14 -97 40 -155 56 -58 16 -119 36
-135 45 -17 8 -91 76 -165 149 -119 117 -151 142 -267 211 -123 73 -322 177
-421 220 l-42 19 0 69 c0 91 -35 162 -118 242 -67 64 -129 96 -279 147 l-100
34 -17 45 c-9 26 -16 74 -16 109 0 63 1 64 53 120 29 31 66 73 81 92 15 19 67
76 115 125 81 84 118 137 192 280 21 42 36 56 95 87 79 43 164 128 218 219 20
33 36 63 36 67 0 4 25 18 54 30 72 32 154 115 202 205 34 65 38 81 42 164 5
96 3 103 -49 206 -10 21 -43 70 -73 110 -29 40 -76 119 -104 177 -35 75 -67
124 -111 173 -69 76 -64 53 -52 270 l8 138 38 39 c22 22 44 40 50 40 7 0 37
-51 67 -112 87 -179 210 -337 359 -465 133 -114 216 -146 288 -108 44 22 117
110 152 181 37 76 49 122 56 227 6 88 10 93 98 122 85 29 147 70 248 169 81
78 110 99 165 121 61 24 146 72 176 99 6 6 39 37 73 69 69 64 92 69 144 34z
m-2390 -235 c21 -15 73 -58 116 -97 44 -38 102 -86 129 -105 67 -48 76 -85 45
-181 -13 -41 -20 -81 -17 -95 8 -32 -3 -31 -83 11 -102 54 -202 134 -243 195
-79 118 -101 238 -53 286 29 29 51 26 106 -14z m-4443 -103 c2 -27 -5 -47 -34
-89 -62 -90 -87 -155 -82 -211 7 -71 62 -170 140 -254 45 -48 68 -81 68 -97 0
-13 -25 -62 -56 -108 -117 -177 -139 -270 -89 -369 35 -71 99 -138 141 -150
54 -15 87 -3 270 100 73 41 128 59 219 70 47 6 101 20 132 35 70 34 150 123
214 239 79 143 105 164 195 151 127 -17 212 -100 369 -361 76 -126 149 -234
210 -310 31 -38 71 -97 88 -130 30 -59 31 -64 38 -245 13 -352 62 -470 298
-720 13 -14 59 -79 102 -145 143 -220 182 -269 314 -400 261 -260 480 -384
731 -414 169 -20 217 -47 379 -208 69 -69 138 -128 161 -139 38 -17 42 -23 47
-64 3 -25 1 -65 -3 -90 -5 -25 -9 -108 -10 -186 0 -140 0 -140 39 -241 80
-204 150 -319 274 -451 l68 -73 -4 -257 c-4 -256 -4 -257 -42 -412 -33 -139
-38 -174 -45 -345 -6 -166 -11 -205 -38 -310 -29 -110 -32 -133 -32 -283 0
-159 1 -166 31 -240 16 -43 48 -104 70 -138 65 -101 51 -124 -91 -143 -357
-47 -856 -41 -1233 14 -754 112 -1486 421 -2077 879 -273 212 -564 499 -770
761 -178 225 -297 414 -456 720 -219 424 -363 881 -434 1383 -18 128 -20 195
-20 633 0 439 2 504 20 635 92 654 311 1236 669 1779 103 156 168 228 202 223
19 -2 25 -10 27 -39z m4127 -89 c4 -6 7 -31 7 -55 0 -40 -5 -49 -54 -97 -30
-29 -67 -72 -81 -95 -26 -40 -27 -49 -27 -168 0 -102 -3 -127 -15 -131 -8 -4
-15 -12 -15 -20 0 -23 -13 -17 -71 33 -30 25 -78 61 -106 80 -66 42 -89 74
-74 102 6 10 55 50 108 87 54 38 145 114 202 171 57 57 107 103 112 103 4 0
11 -5 14 -10z m-3 -2774 c46 -18 156 -57 244 -86 226 -73 265 -100 210 -147
-43 -37 -101 -31 -224 22 -57 25 -130 49 -161 54 -40 6 -78 22 -121 50 -68 44
-122 63 -154 56 -28 -7 -50 9 -43 29 4 9 21 25 39 36 50 30 113 26 210 -14z"/>
</g>
</svg>
